{ "backgroundcolor":"#ffff7f",
 "height":18,
 "infinite":false,
 "layers":[
        {
         "id":1,
         "layers":[
                {
                 "id":5,
                 "image":"..\/..\/..\/tmx\/examples\/data\/bg.jpg",
                 "name":"Image",
                 "opacity":1,
                 "properties":[
                        {
                         "name":"alt",
                         "type":"string",
                         "value":"rainbow"
                        }],
                 "type":"imagelayer",
                 "visible":true,
                 "x":0,
                 "y":0
                }, 
                {
                 "compression":"zlib",
                 "data":"eJy9lN0OgCAIRjX\/6v1fuLXZxr7BB9bq4twochioLaVUfqAB11qfyLisYK1nOFsnReztYr8bTsvP9vJ0Yfyq7yno6x\/7iuF7mucQRH3WeZYL96y4TZmfVyeueTV4Pq8fXq+YM+Ibk0g9GIv1sX56OTTnGx\/mqwTWd80X6T3+ffgPRubNfOjEv0DC3suKTzoHYfV+RtgJlkd7f7fTm4OWi6GdZXNn93H1rqLzBIoiCFE=",
                 "encoding":"base64",
                 "height":18,
                 "id":6,
                 "name":"Layer",
                 "opacity":1,
                 "type":"tilelayer",
                 "visible":true,
                 "width":28,
                 "x":0,
                 "y":0
                }],
         "name":"Group",
         "opacity":1,
         "type":"group",
         "visible":true,
         "x":0,
         "y":0
        }, 
        {
         "color":"#aa0000",
         "draworder":"topdown",
         "id":4,
         "name":"Objects",
         "objects":[
                {
                 "height":192,
                 "id":1,
                 "name":"square",
                 "rotation":22.5,
                 "type":"spawn",
                 "visible":true,
                 "width":192,
                 "x":128,
                 "y":128
                }, 
                {
                 "height":0,
                 "id":2,
                 "name":"polygon",
                 "polygon":[
                        {
                         "x":20,
                         "y":-5
                        }, 
                        {
                         "x":-44,
                         "y":-197
                        }, 
                        {
                         "x":180,
                         "y":-229
                        }],
                 "rotation":0,
                 "type":"",
                 "visible":true,
                 "width":0,
                 "x":492,
                 "y":325
                }, 
                {
                 "height":0,
                 "id":3,
                 "name":"polyline",
                 "polyline":[
                        {
                         "x":-14,
                         "y":3
                        }, 
                        {
                         "x":50,
                         "y":-61
                        }, 
                        {
                         "x":114,
                         "y":3
                        }, 
                        {
                         "x":178,
                         "y":-61
                        }, 
                        {
                         "x":242,
                         "y":3
                        }, 
                        {
                         "x":306,
                         "y":-61
                        }, 
                        {
                         "x":370,
                         "y":3
                        }],
                 "rotation":0,
                 "type":"",
                 "visible":true,
                 "width":0,
                 "x":174,
                 "y":477
                }, 
                {
                 "ellipse":true,
                 "height":160,
                 "id":4,
                 "name":"ellipse",
                 "rotation":0,
                 "type":"",
                 "visible":true,
                 "width":160,
                 "x":672,
                 "y":352
                }, 
                {
                 "height":20,
                 "id":5,
                 "name":"text",
                 "rotation":10,
                 "text":
                    {
                     "bold":true,
                     "color":"#ff0000",
                     "italic":true,
                     "text":"Hello World",
                     "wrap":true
                    },
                 "type":"",
                 "visible":true,
                 "width":110,
                 "x":4,
                 "y":0
                }],
         "opacity":1,
         "type":"objectgroup",
         "visible":true,
         "x":0,
         "y":0
        }],
 "nextlayerid":7,
 "nextobjectid":5,
 "orientation":"orthogonal",
 "properties":[
        {
         "name":"alt",
         "type":"file",
         "value":"..\/..\/..\/tmx\/examples\/data\/csv.tmx"
        }, 
        {
         "name":"bool_false",
         "type":"bool",
         "value":false
        }, 
        {
         "name":"bool_true",
         "type":"bool",
         "value":true
        }, 
        {
         "name":"colour",
         "type":"color",
         "value":"#cc1a1a1a"
        }, 
        {
         "name":"multilines",
         "type":"string",
         "value":"foo\nbar\nbaz"
        }, 
        {
         "name":"pi",
         "type":"float",
         "value":3.14
        }, 
        {
         "name":"xml",
         "type":"string",
         "value":"libxml2"
        }],
 "renderorder":"right-down",
 "tiledversion":"1.2.1",
 "tileheight":32,
 "tilesets":[
        {
         "columns":3,
         "firstgid":1,
         "image":"..\/..\/..\/tmx\/examples\/data\/numbers.png",
         "imageheight":100,
         "imagewidth":100,
         "margin":0,
         "name":"base",
         "spacing":1,
         "tilecount":9,
         "tileheight":32,
         "tiles":[
                {
                 "id":0,
                 "objectgroup":
                    {
                     "draworder":"index",
                     "name":"",
                     "objects":[
                            {
                             "height":25.25,
                             "name":"",
                             "rotation":0,
                             "type":"",
                             "visible":true,
                             "width":10.25
                            }],
                     "opacity":1,
                     "type":"objectgroup",
                     "visible":true,
                     "x":0,
                     "y":0
                    },
                 "properties":[
                        {
                         "name":"number",
                         "type":"int",
                         "value":1
                        }]
                }, 
                {
                 "id":1,
                 "properties":[
                        {
                         "name":"number",
                         "type":"int",
                         "value":2
                        }]
                }, 
                {
                 "id":2,
                 "properties":[
                        {
                         "name":"number",
                         "type":"int",
                         "value":3
                        }]
                }, 
                {
                 "id":4,
                 "type":"five"
                }, 
                {
                 "animation":[
                        {
                         "duration":200,
                         "tileid":0
                        }, 
                        {
                         "duration":300,
                         "tileid":1
                        }, 
                        {
                         "duration":400,
                         "tileid":2
                        }, 
                        {
                         "duration":500,
                         "tileid":3
                        }, 
                        {
                         "duration":600,
                         "tileid":4
                        }, 
                        {
                         "duration":700,
                         "tileid":5
                        }, 
                        {
                         "duration":2000,
                         "tileid":6
                        }],
                 "id":6
                }],
         "tilewidth":32
        }],
 "tilewidth":32,
 "type":"map",
 "version":1.2,
 "width":28
}